[

  {
    "FactionName": "Brotherhood of Nod",
    "FactionRoleName": "NOD",
    "FactionChannelId": 212129534001020929,
    "FactionCredits": 10000,
    "FactionPowerLevel": 100,
    "FactionMembers": 1,
    "HarvestersLimit": 1,
    "InfantryLimit": 20,
    "VehicleLimit": 10,
    "AircraftLimit": 5,



    "FactionBuildings": {
      "power plant": {
        "BuildingType": 0,
        "BuildingName": "Power Plant",
        "BuildingCost": 300,
        "BuildingImagePath": "Images\\Nod\\powerplantbasic.png",
        "BuildingCount": 0,
        "BuildingPowerCost": 0
      },
      "tiberium refinery": {
        "BuildingType": 1,
        "BuildingName": "Tiberium refinery",
        "BuildingCost": 2000,
        "BuildingImagePath": "Images\\Nod\\tiberiumrefinery.gif",
        "BuildingCount": 0,
        "BuildingPowerCost": 30
      },
      "hand of nod": {
        "BuildingType": 2,
        "BuildingName": "Hand of Nod",
        "BuildingCost": 300,
        "BuildingImagePath": "Images\\Nod\\handofnod.png",
        "BuildingCount": 0,
        "BuildingPowerCost": 20
      },
      "war factory": {
        "BuildingType": 3,
        "BuildingName": "War Factory",
        "BuildingCost": 2000,
        "BuildingImagePath": "Images\\Nod\\warfactory.gif",
        "BuildingCount": 0,
        "BuildingPowerCost": 30
      },
      "helipad": {
        "BuildingType": 4,
        "BuildingName": "Helipad",
        "BuildingCost": 500,
        "BuildingImagePath": "Images\\Nod\\helipad.png",
        "BuildingCount": 0,
        "BuildingPowerCost": 10
      }

    },


    "FactionUnits": {
      "harvester": {
        "UnitName": "Harvester",
        "UnitCost": 1400,
        "UnitCount": 1,
        "UnitDmg": 0,
        "UnitType": 0,
        "UnitImagePath": "Images\\Nod\\harvester.gif"
      },
      "light infantry": {
        "UnitName": "Light Infantry",
        "UnitCost": 120,
        "UnitCount": 0,
        "UnitDmg": 8,
        "UnitType": 1,
        "UnitImagePath": "Images\\Nod\\lightinfantry.png"
      },
      "rocket infantry": {
        "UnitName": "Rocket Infantry",
        "UnitCost": 250,
        "UnitCount": 0,
        "UnitDmg": 25,
        "UnitType": 1,
        "UnitImagePath": "Images\\Nod\\rocketinfantry.png"
      },
      "attack buggy": {
        "UnitName": "Attack Buggy",
        "UnitCost": 500,
        "UnitCount": 0,
        "UnitDmg": 40,
        "UnitType": 2,
        "UnitImagePath": "Images\\Nod\\attackbuggy.png"
      },
      "tick tank": {
        "UnitName": "Tick Tank",
        "UnitCost": 800,
        "UnitCount": 0,
        "UnitDmg": 50,
        "UnitType": 2,
        "UnitImagePath": "Images\\Nod\\ticktank.png"
      },
      "banshee": {
        "UnitName": "Banshee",
        "UnitCost": 1500,
        "UnitCount": 0,
        "UnitDmg": 80,
        "UnitType": 3,
        "UnitImagePath": "Images\\Nod\\banshee.gif"
      }
    }
  },









  {
    "FactionName": "Global Defense Initiative",
    "FactionRoleName": "GDI",
    "FactionChannelId": 212129558080651264,
    "FactionCredits": 10000,
    "FactionPowerLevel": 100,
    "FactionMembers": 0,
    "HarvestersLimit": 1,
    "InfantryLimit": 20,
    "VehicleLimit": 10,
    "AircraftLimit": 5,



    "FactionBuildings": {
      "power plant": {
        "BuildingType": 0,
        "BuildingName": "Power Plant",
        "BuildingCost": 300,
        "BuildingImagePath": "Images\\Gdi\\powerplantbasic.png",
        "BuildingCount": 0,
        "BuildingPowerCost": 0
      },
      "tiberium refinery": {
        "BuildingType": 1,
        "BuildingName": "Tiberium refinery",
        "BuildingCost": 2000,
        "BuildingImagePath": "Images\\Gdi\\tiberiumrefinery.png",
        "BuildingCount": 0,
        "BuildingPowerCost": 30
      },
      "barracks": {
        "BuildingType": 2,
        "BuildingName": "Barracks",
        "BuildingCost": 300,
        "BuildingImagePath": "Images\\Gdi\\barracks.png",
        "BuildingCount": 0,
        "BuildingPowerCost": 20
      },
      "war factory": {
        "BuildingType": 3,
        "BuildingName": "War Factory",
        "BuildingCost": 2000,
        "BuildingImagePath": "Images\\Gdi\\warfactory.png",
        "BuildingCount": 0,
        "BuildingPowerCost": 30
      },
      "helipad": {
        "BuildingType": 4,
        "BuildingName": "Helipad",
        "BuildingCost": 500,
        "BuildingImagePath": "Images\\Gdi\\helipad.png",
        "BuildingCount": 0,
        "BuildingPowerCost": 10
      }
    },



    "FactionUnits": {
      "harvester": {
        "UnitName": "Harvester",
        "UnitCost": 1400,
        "UnitCount": 1,
        "UnitDmg": 0,
        "UnitType": 0,
        "UnitImagePath": "Images\\Gdi\\harvester.gif"
      },
      "light infantry": {
        "UnitName": "Light Infantry",
        "UnitCost": 120,
        "UnitCount": 0,
        "UnitDmg": 8,
        "UnitType": 1,
        "UnitImagePath": "Images\\Gdi\\lightinfantry.gif"
      },
      "disc thrower": {
        "UnitName": "Disc Thrower",
        "UnitCost": 200,
        "UnitCount": 0,
        "UnitDmg": 20,
        "UnitType": 1,
        "UnitImagePath": "Images\\Gdi\\discthrower.png"
      },
      "wolverine": {
        "UnitName": "Wolverine",
        "UnitCost": 500,
        "UnitCount": 0,
        "UnitDmg": 40,
        "UnitType": 2,
        "UnitImagePath": "Images\\Gdi\\wolverine.png"
      },
      "titan": {
        "UnitName": "Titan",
        "UnitCost": 800,
        "UnitCount": 0,
        "UnitDmg": 50,
        "UnitType": 2,
        "UnitImagePath": "Images\\Gdi\\titan.png"
      },
      "orca": {
        "UnitName": "Orca",
        "UnitCost": 1000,
        "UnitCount": 0,
        "UnitDmg": 60,
        "UnitType": 3,
        "UnitImagePath": "Images\\Gdi\\orca.png"
      }
    }
  },













  {
    "FactionName": "Soviets",
    "FactionRoleName": "Soviets",
    "FactionChannelId": 212129620382711808,
    "FactionCredits": 10000,
    "FactionPowerLevel": 100,
    "FactionMembers": 0,
    "HarvestersLimit": 1,
    "InfantryLimit": 20,
    "VehicleLimit": 10,
    "AircraftLimit": 5,




    "FactionBuildings": {
      "tesla reactor": {
        "BuildingType": 0,
        "BuildingName": "Tesla reactor",
        "BuildingCost": 300,
        "BuildingImagePath": "Images\\Soviets\\teslareactor.png",
        "BuildingCount": 0,
        "BuildingPowerCost": 0
      },
      "ore refinery": {
        "BuildingType": 1,
        "BuildingName": "Ore refinery",
        "BuildingCost": 2000,
        "BuildingImagePath": "Images\\Soviets\\orerefinery.jpg",
        "BuildingCount": 0,
        "BuildingPowerCost": 30
      },
      "barracks": {
        "BuildingType": 2,
        "BuildingName": "Barracks",
        "BuildingCost": 300,
        "BuildingImagePath": "Images\\Soviets\\barracks.png",
        "BuildingCount": 0,
        "BuildingPowerCost": 20
      },
      "war factory": {
        "BuildingType": 3,
        "BuildingName": "War Factory",
        "BuildingCost": 2000,
        "BuildingImagePath": "Images\\Soviets\\warfactory.jpg",
        "BuildingCount": 0,
        "BuildingPowerCost": 30
      },
      "airstrip": {
        "BuildingType": 4,
        "BuildingName": "Airstrip",
        "BuildingCost": 500,
        "BuildingImagePath": "Images\\Soviets\\airstrip.gif",
        "BuildingCount": 0,
        "BuildingPowerCost": 10
      }
    },


    "FactionUnits": {
      "war miner": {
        "UnitName": "War Miner",
        "UnitCost": 1400,
        "UnitCount": 1,
        "UnitDmg": 0,
        "UnitType": 0,
        "UnitImagePath": "Images\\Soviets\\warminer.png"
      },
      "conscript": {
        "UnitName": "Conscript",
        "UnitCost": 120,
        "UnitCount": 0,
        "UnitDmg": 8,
        "UnitType": 1,
        "UnitImagePath": "Images\\Soviets\\conscript.png"
      },
      "flak trooper": {
        "UnitName": "Flak Trooper",
        "UnitCost": 300,
        "UnitCount": 0,
        "UnitDmg": 30,
        "UnitType": 1,
        "UnitImagePath": "Images\\Soviets\\flaktrooper.png"
      },
      "flak track": {
        "UnitName": "Flak Track",
        "UnitCost": 500,
        "UnitCount": 0,
        "UnitDmg": 40,
        "UnitType": 2,
        "UnitImagePath": "Images\\Soviets\\flacktrack.jpg"
      },
      "rhino tank": {
        "UnitName": "Rhino Tank",
        "UnitCost": 900,
        "UnitCount": 0,
        "UnitDmg": 60,
        "UnitType": 2,
        "UnitImagePath": "Images\\Soviets\\rhinotank.png"
      },
      "kirov airship": {
        "UnitName": "Kirov Airship",
        "UnitCost": 2000,
        "UnitCount": 0,
        "UnitDmg": 120,
        "UnitType": 3,
        "UnitImagePath": "Images\\Soviets\\kirov.png"
      }
    }
  },
















  {
    "FactionName": "Allies",
    "FactionRoleName": "Allies",
    "FactionChannelId": 212129589416296458,
    "FactionCredits": 10000,
    "FactionPowerLevel": 100,
    "FactionMembers": 0,
    "HarvestersLimit": 1,
    "InfantryLimit": 20,
    "VehicleLimit": 10,
    "AircraftLimit": 5,




    "FactionBuildings": {
      "power plant": {
        "BuildingType": 0,
        "BuildingName": "Power Plant",
        "BuildingCost": 300,
        "BuildingImagePath": "Images\\Allies\\powerplantbasic.png",
        "BuildingCount": 0,
        "BuildingPowerCost": 0
      },
      "ore refinery": {
        "BuildingType": 1,
        "BuildingName": "Ore refinery",
        "BuildingCost": 2000,
        "BuildingImagePath": "Images\\Allies\\orerefinery.gif",
        "BuildingCount": 0,
        "BuildingPowerCost": 30
      },
      "barracks": {
        "BuildingType": 2,
        "BuildingName": "Barracks",
        "BuildingCost": 300,
        "BuildingImagePath": "Images\\Allies\\barracks.png",
        "BuildingCount": 0,
        "BuildingPowerCost": 20
      },
      "war factory": {
        "BuildingType": 3,
        "BuildingName": "War Factory",
        "BuildingCost": 2000,
        "BuildingImagePath": "Images\\Allies\\warfactory.gif",
        "BuildingCount": 0,
        "BuildingPowerCost": 30
      },
      "airforce command": {
        "BuildingType": 4,
        "BuildingName": "Airforce Command",
        "BuildingCost": 500,
        "BuildingImagePath": "Images\\Allies\\airforce.png",
        "BuildingCount": 0,
        "BuildingPowerCost": 10
      }
    },


    "FactionUnits": {
      "chrono miner": {
        "UnitName": "Chrono Miner",
        "UnitCost": 1400,
        "UnitCount": 1,
        "UnitDmg": 0,
        "UnitType": 0,
        "UnitImagePath": "Images\\Allies\\warminer.png"
      },
      "gi": {
        "UnitName": "GI",
        "UnitCost": 120,
        "UnitCount": 0,
        "UnitDmg": 8,
        "UnitType": 1,
        "UnitImagePath": "Images\\Allies\\conscript.png"
      },
      "guardian gi": {
        "UnitName": "Guardian GI",
        "UnitCost": 250,
        "UnitCount": 0,
        "UnitDmg": 25,
        "UnitType": 1,
        "UnitImagePath": "Images\\Allies\\flaktrooper.png"
      },
      "infantry fighting vehicle": {
        "UnitName": "Infantry Fighting Vehicle",
        "UnitCost": 500,
        "UnitCount": 0,
        "UnitDmg": 40,
        "UnitType": 2,
        "UnitImagePath": "Images\\Allies\\flacktrack.jpg"
      },
      "grizzly tank": {
        "UnitName": "Grizzly tank",
        "UnitCost": 700,
        "UnitCount": 0,
        "UnitDmg": 50,
        "UnitType": 2,
        "UnitImagePath": "Images\\Allies\\rhinotank.png"
      },
      "harrier": {
        "UnitName": "Harrier",
        "UnitCost": 1200,
        "UnitCount": 0,
        "UnitDmg": 80,
        "UnitType": 3,
        "UnitImagePath": "Images\\Allies\\kirov.png"
      }
    }
  }
]